{
  "_sfmu_mail": {
    "main": [
      {
         "recipient":"{admin_email}",
         "sender":"Goldfish Swim School <no-reply@goldfishswimschool.com>",
         "subject":"Contest Form New Submit - {first-name-1_3} {last-name-1_6}",
         "additional_headers":"{email-2}",
         "body":"{all_fields}"
      }
    ],
    "microsite": [
      {
         "recipient":"{admin_email}",
         "sender":"Goldfish Swim School <no-reply@goldfishswimschool.com>",
         "subject":"Contest Form New Submit - {first-name-1_3} {last-name-1_6}",
         "additional_headers":"{email-2}",
         "body":"{all_fields}"
      }
    ]
  },
  "_messages":{
     "mail_sent_ok":"Thanks for contacting us! We will get in touch with you shortly."
  },
  "_form":""
}
